﻿{
  "$schema": "http://json.schemastore.org/launchsettings.json",
  "iisSettings": {
    "windowsAuthentication": false,
    "anonymousAuthentication": true,
    "iisExpress": {
      "applicationUrl": "http://localhost:64980",
      "sslPort": 44358
    }
  },
  "profiles": {
    "IIS Express": {
        "commandName": "IISExpress",
        "launchBrowser": true,
        "launchUrl": "swagger",
        "environmentVariables": {
            "ASPNETCORE_ENVIRONMENT": "Development"
        }
    },
    "Manufactoring": {
        "commandName": "Project",
        "launchBrowser": true,
        "launchUrl": "swagger",
        "applicationUrl": "https://localhost:5001;http://localhost:5000",
        "environmentVariables": {
            "ASPNETCORE_ENVIRONMENT": "Development"
        }
    }
  }
}
